2020-05-01 00:11:48	Update #8: Completed!
2020-05-01 00:11:48	Update #9: Initializing update
2020-05-01 00:11:49	Update #9: Added: Pages > Recent
2020-05-01 00:11:49	Update #9: Completed!
2020-05-01 00:12:05	Update #10: Initializing update
2020-05-01 00:12:05	Update #10: Installed ProcessLogger and added: Setup > Logs
2020-05-01 00:12:05	Update #10: Installed InputfieldIcon
2020-05-01 00:12:05	Update #10: Completed!
2020-05-01 00:14:09	Update #11: Initializing update
2020-05-01 00:14:10	Update #11: Completed!
